Sentiment-Analysis
…
#find topics from consolidated data (Seltos, Jeep, Hector)
find_topics(review_dtm,12)

## # A tibble: 120 x 3
##    topic term        beta
##    <int> <chr>      <dbl>
##  1     1 sales    0.0123 
##  2     1 poor     0.0115 
##  3     1 version  0.0111 
##  4     1 service  0.0109 
##  5     1 petrol   0.0107 
##  6     1 delivery 0.0101 
##  7     1 brand    0.01000
##  8     1 battery  0.00956
##  9     1 2        0.00934
## 10     1 customer 0.00932
## # ... with 110 more rows
…
## # A tibble: 1,608 x 3
##    document         topic gamma
##    <chr>            <int> <dbl>
##  1 jeep compass_100     1 0.875
##  2 jeep compass_101     1 0.499
##  3 jeep compass_102     1 0.499
##  4 jeep compass_113     1 0.988
##  5 jeep compass_115     1 0.944
##  6 jeep compass_117     1 0.979
##  7 jeep compass_125     1 0.900
##  8 jeep compass_139     1 0.636
##  9 jeep compass_151     1 0.803
## 10 jeep compass_155     1 0.600
## # ... with 1,598 more rows

#find topics from consolidated data (Seltos, Jeep, Hector)
find_topics(review_dtm,7)

## # A tibble: 70 x 3
##    topic term        beta
##    <int> <chr>      <dbl>
##  1     1 features  0.0782
##  2     1 segment   0.0397
##  3     1 suv       0.0370
##  4     1 price     0.0347
##  5     1 superb    0.0220
##  6     1 excellent 0.0190
##  7     1 range     0.0183
##  8     1 creta     0.0167
##  9     1 class     0.0165
## 10     1 market    0.0164
## # ... with 60 more rows
…
## # A tibble: 1,608 x 3
##    document         topic gamma
##    <chr>            <int> <dbl>
##  1 jeep compass_10      1 0.593
##  2 jeep compass_100     1 0.489
##  3 jeep compass_104     1 0.863
##  4 jeep compass_109     1 0.354
##  5 jeep compass_115     1 0.395
##  6 jeep compass_130     1 0.417
##  7 jeep compass_131     1 0.537
##  8 jeep compass_136     1 0.959
##  9 jeep compass_141     1 0.452
## 10 jeep compass_145     1 0.481
## # ... with 1,598 more rows
…
