Sentiment-Analysis
…
#find topics from consolidated data (Seltos, Jeep, Hector)
find_topics(review_dtm,12)

## # A tibble: 120 x 3
##    topic term       beta
##    <int> <chr>     <dbl>
##  1     1 nice     0.0269
##  2     1 awesome  0.0217
##  3     1 suv      0.0206
##  4     1 segment  0.0172
##  5     1 powerful 0.0161
##  6     1 interior 0.0147
##  7     1 design   0.0134
##  8     1 harrier  0.0121
##  9     1 creta    0.0116
## 10     1 india    0.0108
## # ... with 110 more rows
…
## # A tibble: 939 x 3
##    document         topic gamma
##    <chr>            <int> <dbl>
##  1 jeep compass_102     1 0.820
##  2 jeep compass_122     1 0.635
##  3 jeep compass_129     1 0.946
##  4 jeep compass_136     1 0.788
##  5 jeep compass_180     1 0.588
##  6 jeep compass_208     1 0.485
##  7 jeep compass_247     1 0.954
##  8 jeep compass_3       1 0.697
##  9 jeep compass_33      1 0.274
## 10 jeep compass_366     1 0.855
## # ... with 929 more rows
…
