Text Analysis - Car Reviews
…
Text Analytics 5: Create Bigrams

#Bigrams for Seltos
seltos_bigram = create_bigram(seltos) %>% top_n(20)

## Selecting by n

print(seltos_bigram)

## # A tibble: 21 x 3
##    word1     word2          n
##    <chr>     <chr>      <int>
##  1 nice      car           48
##  2 price     range         34
##  3 driving   experience    30
##  4 indian    market        24
##  5 excellent car           23
##  6 air       purifier      21
##  7 hyundai   creta         21
##  8 boot      space         19
##  9 test      drive         18
## 10 top       model         18
## # ... with 11 more rows

#Bigrams for Compass
compass_bigram = create_bigram(Compass) %>% top_n(20)

## Selecting by n

print(compass_bigram)

## # A tibble: 36 x 3
##    word1        word2          n
##    <chr>        <chr>      <int>
##  1 build        quality       19
##  2 driving      experience    10
##  3 diesel       engine         9
##  4 safety       features       9
##  5 nice         car            8
##  6 km           liter          7
##  7 5            5              6
##  8 android      auto           6
##  9 infotainment system         6
## 10 panoramic    sunroof        6
## # ... with 26 more rows
…
